lab3/t3v4/NewFile1.csv

X,CH1,CH2,Start,Increment,
Sequence,Volt,Volt,-4.120000e-06,2.000000e-09
0,-9.24e-03,1.43e+01,
1,-9.24e-03,1.43e+01,
2,-3.08e-03,1.45e+01,
3,-9.24e-03,1.45e+01,
4,-9.24e-03,1.45e+01,
5,-9.24e-03,1.45e+01,
6,-9.24e-03,1.45e+01,
7,-9.24e-03,1.45e+01,
8,-9.24e-03,1.45e+01,
9,-9.24e-03,1.45e+01,
10,-9.24e-03,1.47e+01,
11,-9.24e-03,1.47e+01,
12,-9.24e-03,1.45e+01,
13,-9.24e-03,1.45e+01,
14,-9.24e-03,1.47e+01,
15,-9.24e-03,1.47e+01,
16,-9.24e-03,1.47e+01,
17,-9.24e-03,1.47e+01,
18,-9.24e-03,1.47e+01,
19,-9.24e-03,1.47e+01,
20,-9.24e-03,1.47e+01,
21,-9.24e-03,1.47e+01,
22,-9.24e-03,1.47e+01,
23,-9.24e-03,1.47e+01,
24,-9.24e-03,1.47e+01,
25,-9.24e-03,1.47e+01,
26,-9.24e-03,1.49e+01,
27,-9.24e-03,1.47e+01,
28,-9.24e-03,1.49e+01,
29,-9.24e-03,1.47e+01,
30,-9.24e-03,1.49e+01,
31,-9.24e-03,1.47e+01,
32,-9.24e-03,1.49e+01,
33,-9.24e-03,1.47e+01,
34,-9.24e-03,1.49e+01,
35,-9.24e-03,1.49e+01,
36,-9.24e-03,1.47e+01,
37,-9.24e-03,1.49e+01,
38,-9.24e-03,1.49e+01,
39,-9.24e-03,1.49e+01,
40,-9.24e-03,1.49e+01,
41,-9.24e-03,1.49e+01,
42,-9.24e-03,1.49e+01,
43,-9.24e-03,1.49e+01,
44,-9.24e-03,1.49e+01,
45,-9.24e-03,1.49e+01,
46,-9.24e-03,1.49e+01,
47,-9.24e-03,1.49e+01,
48,-9.24e-03,1.49e+01,
49,-9.24e-03,1.49e+01,
50,-3.08e-03,1.53e+01,
51,-9.24e-03,1.53e+01,
52,-9.24e-03,1.49e+01,
53,-9.24e-03,1.49e+01,
54,-9.24e-03,1.53e+01,
55,-9.24e-03,1.49e+01,
56,-9.24e-03,1.53e+01,
57,-9.24e-03,1.53e+01,
58,-9.24e-03,1.53e+01,
59,-9.24e-03,1.53e+01,
60,-9.24e-03,1.53e+01,
61,-9.24e-03,1.49e+01,
62,-9.24e-03,1.49e+01,
63,-9.24e-03,1.49e+01,
64,-9.24e-03,1.53e+01,
65,-9.24e-03,1.53e+01,
66,-9.24e-03,1.53e+01,
67,-9.24e-03,1.53e+01,
68,-9.24e-03,1.49e+01,
69,-9.24e-03,1.53e+01,
70,-9.24e-03,1.49e+01,
71,-9.24e-03,1.53e+01,
72,-9.24e-03,1.53e+01,
73,-1.54e-02,1.49e+01,
74,-9.24e-03,1.53e+01,
75,-9.24e-03,1.53e+01,
76,-9.24e-03,1.49e+01,
77,-9.24e-03,1.53e+01,
78,-9.24e-03,1.53e+01,
79,-9.24e-03,1.53e+01,
80,-9.24e-03,1.49e+01,
81,-9.24e-03,1.53e+01,
82,-9.24e-03,1.49e+01,
83,-9.24e-03,1.53e+01,
84,-9.24e-03,1.49e+01,
85,-9.24e-03,1.49e+01,
86,-9.24e-03,1.49e+01,
87,-9.24e-03,1.49e+01,
88,-9.24e-03,1.49e+01,
89,-9.24e-03,1.49e+01,
90,-9.24e-03,1.53e+01,
91,-9.24e-03,1.53e+01,
92,-9.24e-03,1.49e+01,
93,-1.54e-02,1.49e+01,
94,-9.24e-03,1.49e+01,
95,-9.24e-03,1.49e+01,
96,-9.24e-03,1.49e+01,
97,-9.24e-03,1.49e+01,
98,-9.24e-03,1.49e+01,
99,-9.24e-03,1.49e+01,
100,-9.24e-03,1.49e+01,
101,-9.24e-03,1.49e+01,
102,-9.24e-03,1.49e+01,
103,-9.24e-03,1.49e+01,
104,-9.24e-03,1.49e+01,
105,-9.24e-03,1.47e+01,
106,-9.24e-03,1.49e+01,
107,-9.24e-03,1.49e+01,
108,-9.24e-03,1.47e+01,
109,-9.24e-03,1.47e+01,
110,-9.24e-03,1.47e+01,
111,-9.24e-03,1.49e+01,
112,-9.24e-03,1.47e+01,
113,-9.24e-03,1.47e+01,
114,-9.24e-03,1.49e+01,
115,-9.24e-03,1.49e+01,
116,-9.24e-03,1.47e+01,
117,-9.24e-03,1.47e+01,
118,-9.24e-03,1.47e+01,
119,-9.24e-03,1.47e+01,
120,-9.24e-03,1.47e+01,
121,-9.24e-03,1.47e+01,
122,-9.24e-03,1.47e+01,
123,-9.24e-03,1.47e+01,
124,-9.24e-03,1.45e+01,
125,-9.24e-03,1.45e+01,
126,-9.24e-03,1.45e+01,
127,-1.54e-02,1.45e+01,
128,-1.54e-02,1.47e+01,
129,-9.24e-03,1.45e+01,
130,-9.24e-03,1.47e+01,
131,-9.24e-03,1.45e+01,
132,-9.24e-03,1.45e+01,
133,-9.24e-03,1.45e+01,
134,-9.24e-03,1.45e+01,
135,-9.24e-03,1.45e+01,
136,-9.24e-03,1.45e+01,
137,-9.24e-03,1.43e+01,
138,-9.24e-03,1.45e+01,
139,-9.24e-03,1.45e+01,
140,-9.24e-03,1.43e+01,
141,-9.24e-03,1.43e+01,
142,-9.24e-03,1.43e+01,
143,-9.24e-03,1.43e+01,
144,-9.24e-03,1.43e+01,
145,-9.24e-03,1.43e+01,
146,-9.24e-03,1.43e+01,
147,-9.24e-03,1.43e+01,
148,-9.24e-03,1.43e+01,
149,-9.24e-03,1.43e+01,
150,-9.24e-03,1.43e+01,
151,-9.24e-03,1.43e+01,
152,-9.24e-03,1.43e+01,
153,-9.24e-03,1.43e+01,
154,-9.24e-03,1.43e+01,
155,-9.24e-03,1.43e+01,
156,-9.24e-03,1.41e+01,
157,-9.24e-03,1.41e+01,
158,-9.24e-03,1.41e+01,
159,-9.24e-03,1.41e+01,
160,-9.24e-03,1.41e+01,
161,-9.24e-03,1.39e+01,
162,-9.24e-03,1.41e+01,
163,-9.24e-03,1.41e+01,
164,-9.24e-03,1.41e+01,
165,-9.24e-03,1.39e+01,
166,-9.24e-03,1.41e+01,
167,-9.24e-03,1.39e+01,
168,-9.24e-03,1.39e+01,
169,-9.24e-03,1.39e+01,
170,-9.24e-03,1.39e+01,
171,-9.24e-03,1.39e+01,
172,-9.24e-03,1.39e+01,
173,-9.24e-03,1.39e+01,
174,-9.24e-03,1.37e+01,
175,-9.24e-03,1.39e+01,
176,-9.24e-03,1.39e+01,
177,-9.24e-03,1.39e+01,
178,-9.24e-03,1.39e+01,
179,-9.24e-03,1.39e+01,
180,-9.24e-03,1.37e+01,
181,-9.24e-03,1.39e+01,
182,-9.24e-03,1.37e+01,
183,-9.24e-03,1.37e+01,
184,-9.24e-03,1.37e+01,
185,-9.24e-03,1.37e+01,
186,-9.24e-03,1.39e+01,
187,-9.24e-03,1.37e+01,
188,-9.24e-03,1.37e+01,
189,-9.24e-03,1.37e+01,
190,-9.24e-03,1.37e+01,
191,-9.24e-03,1.37e+01,
192,-9.24e-03,1.35e+01,
193,-9.24e-03,1.35e+01,
194,-9.24e-03,1.37e+01,
195,-9.24e-03,1.37e+01,
196,-9.24e-03,1.37e+01,
197,-9.24e-03,1.37e+01,
198,-9.24e-03,1.37e+01,
199,-9.24e-03,1.37e+01,
200,-9.24e-03,1.37e+01,
201,-9.24e-03,1.35e+01,
202,-9.24e-03,1.37e+01,
203,-3.08e-03,1.37e+01,
204,-9.24e-03,1.35e+01,
205,-9.24e-03,1.35e+01,
206,-9.24e-03,1.35e+01,
207,-9.24e-03,1.35e+01,
208,-9.24e-03,1.35e+01,
209,-9.24e-03,1.35e+01,
210,-9.24e-03,1.37e+01,
211,-9.24e-03,1.35e+01,
212,-9.24e-03,1.35e+01,
213,-9.24e-03,1.35e+01,
214,-9.24e-03,1.35e+01,
215,-9.24e-03,1.35e+01,
216,-9.24e-03,1.35e+01,
217,-9.24e-03,1.35e+01,
218,-9.24e-03,1.35e+01,
219,-9.24e-03,1.35e+01,
220,-9.24e-03,1.35e+01,
221,-9.24e-03,1.35e+01,
222,-9.24e-03,1.35e+01,
223,-9.24e-03,1.35e+01,
224,-9.24e-03,1.33e+01,
225,-9.24e-03,1.35e+01,
226,-9.24e-03,1.35e+01,
227,-9.24e-03,1.33e+01,
228,-9.24e-03,1.35e+01,
229,-9.24e-03,1.33e+01,
230,-9.24e-03,1.35e+01,
231,-9.24e-03,1.33e+01,
232,-9.24e-03,1.33e+01,
233,-9.24e-03,1.33e+01,
234,-9.24e-03,1.35e+01,
235,-9.24e-03,1.33e+01,
236,-9.24e-03,1.33e+01,
237,-9.24e-03,1.35e+01,
238,-9.24e-03,1.35e+01,
239,-9.24e-03,1.35e+01,
240,-9.24e-03,1.35e+01,
241,-9.24e-03,1.33e+01,
242,-9.24e-03,1.35e+01,
243,-9.24e-03,1.35e+01,
244,-9.24e-03,1.33e+01,
245,-9.24e-03,1.33e+01,
246,-3.08e-03,1.35e+01,
247,-9.24e-03,1.33e+01,
248,-9.24e-03,1.33e+01,
249,-9.24e-03,1.33e+01,
250,-9.24e-03,1.35e+01,
251,-3.08e-03,1.35e+01,
252,-9.24e-03,1.35e+01,
253,-9.24e-03,1.35e+01,
254,-9.24e-03,1.35e+01,
255,-9.24e-03,1.35e+01,
256,-9.24e-03,1.35e+01,
257,-9.24e-03,1.35e+01,
258,-9.24e-03,1.35e+01,
259,-9.24e-03,1.35e+01,
260,-9.24e-03,1.35e+01,
261,-9.24e-03,1.35e+01,
262,-9.24e-03,1.35e+01,
263,-9.24e-03,1.35e+01,
264,-9.24e-03,1.35e+01,
265,-9.24e-03,1.35e+01,
266,-9.24e-03,1.35e+01,
267,-9.24e-03,1.35e+01,
268,-9.24e-03,1.35e+01,
269,-9.24e-03,1.35e+01,
270,-9.24e-03,1.35e+01,
271,-9.24e-03,1.35e+01,
272,-9.24e-03,1.35e+01,
273,-9.24e-03,1.35e+01,
274,-9.24e-03,1.35e+01,
275,-9.24e-03,1.35e+01,
276,-9.24e-03,1.35e+01,
277,-9.24e-03,1.35e+01,
278,-9.24e-03,1.35e+01,
279,-9.24e-03,1.37e+01,
280,-9.24e-03,1.37e+01,
281,-9.24e-03,1.37e+01,
282,-9.24e-03,1.37e+01,
283,-9.24e-03,1.37e+01,
284,-9.24e-03,1.37e+01,
285,-9.24e-03,1.37e+01,
286,-9.24e-03,1.37e+01,
287,-9.24e-03,1.37e+01,
288,-9.24e-03,1.37e+01,
289,-9.24e-03,1.37e+01,
290,-9.24e-03,1.37e+01,
291,-9.24e-03,1.37e+01,
292,-9.24e-03,1.37e+01,
293,-9.24e-03,1.37e+01,
294,-9.24e-03,1.37e+01,
295,-9.24e-03,1.37e+01,
296,-9.24e-03,1.37e+01,
297,-9.24e-03,1.37e+01,
298,-9.24e-03,1.39e+01,
299,-9.24e-03,1.39e+01,
300,-9.24e-03,1.39e+01,
301,-9.24e-03,1.39e+01,
302,-9.24e-03,1.39e+01,
303,-9.24e-03,1.39e+01,
304,-9.24e-03,1.39e+01,
305,-9.24e-03,1.39e+01,
306,-9.24e-03,1.39e+01,
307,-9.24e-03,1.39e+01,
308,-9.24e-03,1.39e+01,
309,-9.24e-03,1.39e+01,
310,-9.24e-03,1.41e+01,
311,-9.24e-03,1.39e+01,
312,-9.24e-03,1.39e+01,
313,-9.24e-03,1.39e+01,
314,-9.24e-03,1.41e+01,
315,-9.24e-03,1.41e+01,
316,-9.24e-03,1.41e+01,
317,-9.24e-03,1.39e+01,
318,-9.24e-03,1.41e+01,
319,-9.24e-03,1.41e+01,
320,-9.24e-03,1.41e+01,
321,-9.24e-03,1.41e+01,
322,-9.24e-03,1.43e+01,
323,-9.24e-03,1.43e+01,
324,-9.24e-03,1.41e+01,
325,-9.24e-03,1.41e+01,
326,-9.24e-03,1.43e+01,
327,-9.24e-03,1.43e+01,
328,-9.24e-03,1.41e+01,
329,-9.24e-03,1.41e+01,
330,-9.24e-03,1.43e+01,
331,-9.24e-03,1.43e+01,
332,-9.24e-03,1.43e+01,
333,-9.24e-03,1.43e+01,
334,-9.24e-03,1.43e+01,
335,-9.24e-03,1.43e+01,
336,-9.24e-03,1.43e+01,
337,-9.24e-03,1.43e+01,
338,-9.24e-03,1.45e+01,
339,-9.24e-03,1.43e+01,
340,-9.24e-03,1.43e+01,
341,-9.24e-03,1.45e+01,
342,-9.24e-03,1.45e+01,
343,-9.24e-03,1.45e+01,
344,-9.24e-03,1.45e+01,
345,-9.24e-03,1.45e+01,
346,-9.24e-03,1.45e+01,
347,-9.24e-03,1.45e+01,
348,-9.24e-03,1.45e+01,
349,-9.24e-03,1.45e+01,
350,-9.24e-03,1.45e+01,
351,-9.24e-03,1.45e+01,
352,-9.24e-03,1.45e+01,
353,-9.24e-03,1.45e+01,
354,-9.24e-03,1.47e+01,
355,-9.24e-03,1.47e+01,
356,-9.24e-03,1.47e+01,
357,-9.24e-03,1.45e+01,
358,-9.24e-03,1.47e+01,
359,-9.24e-03,1.45e+01,
360,-9.24e-03,1.47e+01,
361,-9.24e-03,1.45e+01,
362,-9.24e-03,1.47e+01,
363,-9.24e-03,1.47e+01,
364,-9.24e-03,1.47e+01,
365,-9.24e-03,1.47e+01,
366,-9.24e-03,1.47e+01,
367,-9.24e-03,1.47e+01,
368,-9.24e-03,1.47e+01,
369,-9.24e-03,1.47e+01,
370,-9.24e-03,1.49e+01,
371,-9.24e-03,1.47e+01,
372,-9.24e-03,1.47e+01,
373,-9.24e-03,1.47e+01,
374,-9.24e-03,1.47e+01,
375,-9.24e-03,1.47e+01,
376,-9.24e-03,1.49e+01,
377,-9.24e-03,1.47e+01,
378,-9.24e-03,1.49e+01,
379,-9.24e-03,1.47e+01,
380,-9.24e-03,1.47e+01,
381,-9.24e-03,1.49e+01,
382,-9.24e-03,1.49e+01,
383,-9.24e-03,1.49e+01,
384,-9.24e-03,1.47e+01,
385,-9.24e-03,1.49e+01,
386,-9.24e-03,1.49e+01,
387,-9.24e-03,1.49e+01,
388,-9.24e-03,1.49e+01,
389,-9.24e-03,1.49e+01,
390,-9.24e-03,1.49e+01,
391,-9.24e-03,1.49e+01,
392,-9.24e-03,1.49e+01,
393,-9.24e-03,1.49e+01,
394,-9.24e-03,1.53e+01,
395,-9.24e-03,1.49e+01,
396,-9.24e-03,1.49e+01,
397,-9.24e-03,1.49e+01,
398,-9.24e-03,1.49e+01,
399,-9.24e-03,1.49e+01,
400,-9.24e-03,1.49e+01,
401,-9.24e-03,1.49e+01,
402,-9.24e-03,1.53e+01,
403,-9.24e-03,1.49e+01,
404,-9.24e-03,1.49e+01,
405,-9.24e-03,1.49e+01,
406,-9.24e-03,1.49e+01,
407,-9.24e-03,1.49e+01,
408,-9.24e-03,1.49e+01,
409,-1.54e-02,1.49e+01,
410,-9.24e-03,1.49e+01,
411,-9.24e-03,1.49e+01,
412,-9.24e-03,1.49e+01,
413,-9.24e-03,1.49e+01,
414,-9.24e-03,1.49e+01,
415,-9.24e-03,1.49e+01,
416,-9.24e-03,1.49e+01,
417,-9.24e-03,1.53e+01,
418,-9.24e-03,1.49e+01,
419,-9.24e-03,1.49e+01,
420,-9.24e-03,1.49e+01,
421,-9.24e-03,1.49e+01,
422,-9.24e-03,1.53e+01,
423,-9.24e-03,1.49e+01,
424,-9.24e-03,1.49e+01,
425,-9.24e-03,1.49e+01,
426,-9.24e-03,1.49e+01,
427,-9.24e-03,1.49e+01,
428,-9.24e-03,1.49e+01,
429,-9.24e-03,1.49e+01,
430,-9.24e-03,1.49e+01,
431,-9.24e-03,1.49e+01,
432,-9.24e-03,1.49e+01,
433,-9.24e-03,1.49e+01,
434,-9.24e-03,1.49e+01,
435,-9.24e-03,1.49e+01,
436,-9.24e-03,1.47e+01,
437,-9.24e-03,1.49e+01,
438,-9.24e-03,1.49e+01,
439,-9.24e-03,1.47e+01,
440,-9.24e-03,1.47e+01,
441,-9.24e-03,1.47e+01,
442,-9.24e-03,1.49e+01,
443,-9.24e-03,1.47e+01,
444,-9.24e-03,1.47e+01,
445,-9.24e-03,1.47e+01,
446,-9.24e-03,1.47e+01,
447,-9.24e-03,1.47e+01,
448,-9.24e-03,1.47e+01,
449,-1.54e-02,1.47e+01,
450,-9.24e-03,1.49e+01,
451,-9.24e-03,1.47e+01,
452,-9.24e-03,1.45e+01,
453,-9.24e-03,1.47e+01,
454,-9.24e-03,1.47e+01,
455,-9.24e-03,1.47e+01,
456,-9.24e-03,1.47e+01,
457,-9.24e-03,1.47e+01,
458,-9.24e-03,1.47e+01,
459,-9.24e-03,1.47e+01,
460,-9.24e-03,1.45e+01,
461,-9.24e-03,1.45e+01,
462,-9.24e-03,1.47e+01,
463,-9.24e-03,1.45e+01,
464,-9.24e-03,1.45e+01,
465,-9.24e-03,1.45e+01,
466,-9.24e-03,1.47e+01,
467,-9.24e-03,1.47e+01,
468,-9.24e-03,1.45e+01,
469,-9.24e-03,1.45e+01,
470,-9.24e-03,1.45e+01,
471,-9.24e-03,1.45e+01,
472,-9.24e-03,1.45e+01,
473,-9.24e-03,1.45e+01,
474,-9.24e-03,1.45e+01,
475,-9.24e-03,1.45e+01,
476,-9.24e-03,1.43e+01,
477,-9.24e-03,1.45e+01,
478,-9.24e-03,1.45e+01,
479,-9.24e-03,1.45e+01,
480,-9.24e-03,1.45e+01,
481,-9.24e-03,1.43e+01,
482,-9.24e-03,1.45e+01,
483,-9.24e-03,1.43e+01,
484,-9.24e-03,1.43e+01,
485,-9.24e-03,1.43e+01,
486,-9.24e-03,1.43e+01,
487,-9.24e-03,1.43e+01,
488,-9.24e-03,1.43e+01,
489,-9.24e-03,1.43e+01,
490,-9.24e-03,1.43e+01,
491,-9.24e-03,1.43e+01,
492,-9.24e-03,1.43e+01,
493,-9.24e-03,1.43e+01,
494,-9.24e-03,1.41e+01,
495,-9.24e-03,1.41e+01,
496,-9.24e-03,1.41e+01,
497,-9.24e-03,1.41e+01,
498,-9.24e-03,1.41e+01,
499,-9.24e-03,1.41e+01,
500,-9.24e-03,1.41e+01,
501,-9.24e-03,1.41e+01,
502,-9.24e-03,1.41e+01,
503,-9.24e-03,1.41e+01,
504,-9.24e-03,1.41e+01,
505,-9.24e-03,1.39e+01,
506,-9.24e-03,1.41e+01,
507,-9.24e-03,1.41e+01,
508,-9.24e-03,1.39e+01,
509,-9.24e-03,1.39e+01,
510,-9.24e-03,1.39e+01,
511,-9.24e-03,1.41e+01,
512,-9.24e-03,1.39e+01,
513,-9.24e-03,1.39e+01,
514,-9.24e-03,1.39e+01,
515,-9.24e-03,1.39e+01,
516,-9.24e-03,1.37e+01,
517,-9.24e-03,1.39e+01,
518,-9.24e-03,1.39e+01,
519,-9.24e-03,1.39e+01,
520,-9.24e-03,1.39e+01,
521,-9.24e-03,1.37e+01,
522,-9.24e-03,1.39e+01,
523,-9.24e-03,1.39e+01,
524,-9.24e-03,1.37e+01,
525,-9.24e-03,1.37e+01,
526,-9.24e-03,1.37e+01,
527,-9.24e-03,1.37e+01,
528,-9.24e-03,1.37e+01,
529,-9.24e-03,1.37e+01,
530,-9.24e-03,1.39e+01,
531,-9.24e-03,1.37e+01,
532,-9.24e-03,1.37e+01,
533,-9.24e-03,1.37e+01,
534,-9.24e-03,1.37e+01,
535,-9.24e-03,1.37e+01,
536,-9.24e-03,1.37e+01,
537,-9.24e-03,1.37e+01,
538,-9.24e-03,1.37e+01,
539,-9.24e-03,1.37e+01,
540,-9.24e-03,1.35e+01,
541,-9.24e-03,1.37e+01,
542,-9.24e-03,1.37e+01,
543,-9.24e-03,1.35e+01,
544,-9.24e-03,1.37e+01,
545,-9.24e-03,1.35e+01,
546,-9.24e-03,1.37e+01,
547,-9.24e-03,1.37e+01,
548,-9.24e-03,1.35e+01,
549,-9.24e-03,1.35e+01,
550,-9.24e-03,1.35e+01,
551,-9.24e-03,1.35e+01,
552,-9.24e-03,1.35e+01,
553,-9.24e-03,1.35e+01,
554,-9.24e-03,1.35e+01,
555,-3.08e-03,1.37e+01,
556,-9.24e-03,1.35e+01,
557,-9.24e-03,1.35e+01,
558,-9.24e-03,1.35e+01,
559,-9.24e-03,1.35e+01,
560,-9.24e-03,1.35e+01,
561,-9.24e-03,1.35e+01,
562,-9.24e-03,1.35e+01,
563,-9.24e-03,1.35e+01,
564,-9.24e-03,1.35e+01,
565,-9.24e-03,1.35e+01,
566,-9.24e-03,1.35e+01,
567,-9.24e-03,1.35e+01,
568,-9.24e-03,1.35e+01,
569,-9.24e-03,1.35e+01,
570,-9.24e-03,1.35e+01,
571,-9.24e-03,1.35e+01,
572,-9.24e-03,1.35e+01,
573,-9.24e-03,1.35e+01,
574,-9.24e-03,1.35e+01,
575,-9.24e-03,1.35e+01,
576,-9.24e-03,1.35e+01,
577,-9.24e-03,1.35e+01,
578,-9.24e-03,1.35e+01,
579,-9.24e-03,1.35e+01,
580,-9.24e-03,1.35e+01,
581,-9.24e-03,1.35e+01,
582,-9.24e-03,1.37e+01,
583,-9.24e-03,1.35e+01,
584,-9.24e-03,1.35e+01,
585,-9.24e-03,1.35e+01,
586,-9.24e-03,1.35e+01,
587,-9.24e-03,1.35e+01,
588,-3.08e-03,1.35e+01,
589,-9.24e-03,1.35e+01,
590,-9.24e-03,1.35e+01,
591,-9.24e-03,1.35e+01,
592,-9.24e-03,1.35e+01,
593,-9.24e-03,1.35e+01,
594,-9.24e-03,1.37e+01,
595,-9.24e-03,1.35e+01,
596,-9.24e-03,1.35e+01,
597,-9.24e-03,1.35e+01,
598,-9.24e-03,1.35e+01,
599,-9.24e-03,1.37e+01,
600,-9.24e-03,1.35e+01,
601,-9.24e-03,1.35e+01,
602,-9.24e-03,1.35e+01,
603,-9.24e-03,1.37e+01,
604,-9.24e-03,1.35e+01,
605,-9.24e-03,1.35e+01,
606,-9.24e-03,1.35e+01,
607,-9.24e-03,1.37e+01,
608,-9.24e-03,1.35e+01,
609,-9.24e-03,1.37e+01,
610,-9.24e-03,1.37e+01,
611,-9.24e-03,1.37e+01,
612,-9.24e-03,1.37e+01,
613,-9.24e-03,1.37e+01,
614,-9.24e-03,1.37e+01,
615,-9.24e-03,1.37e+01,
616,-9.24e-03,1.37e+01,
617,-9.24e-03,1.37e+01,
618,-9.24e-03,1.37e+01,
619,-9.24e-03,1.37e+01,
620,-9.24e-03,1.37e+01,
621,-9.24e-03,1.37e+01,
622,-9.24e-03,1.37e+01,
623,-9.24e-03,1.37e+01,
624,-9.24e-03,1.37e+01,
625,-9.24e-03,1.37e+01,
626,-9.24e-03,1.37e+01,
627,-9.24e-03,1.37e+01,
628,-9.24e-03,1.39e+01,
629,-9.24e-03,1.37e+01,
630,-9.24e-03,1.39e+01,
631,-9.24e-03,1.37e+01,
632,-9.24e-03,1.39e+01,
633,-9.24e-03,1.37e+01,
634,-9.24e-03,1.39e+01,
635,-9.24e-03,1.39e+01,
636,-9.24e-03,1.39e+01,
637,-9.24e-03,1.39e+01,
638,-9.24e-03,1.39e+01,
639,-9.24e-03,1.39e+01,
640,-9.24e-03,1.39e+01,
641,-9.24e-03,1.39e+01,
642,-9.24e-03,1.41e+01,
643,-9.24e-03,1.39e+01,
644,-9.24e-03,1.39e+01,
645,-9.24e-03,1.39e+01,
646,-9.24e-03,1.41e+01,
647,-9.24e-03,1.39e+01,
648,-9.24e-03,1.39e+01,
649,-9.24e-03,1.39e+01,
650,-9.24e-03,1.41e+01,
651,-9.24e-03,1.39e+01,
652,-9.24e-03,1.41e+01,
653,-9.24e-03,1.39e+01,
654,-9.24e-03,1.41e+01,
655,-9.24e-03,1.41e+01,
656,-9.24e-03,1.41e+01,
657,-9.24e-03,1.41e+01,
658,-9.24e-03,1.41e+01,
659,-9.24e-03,1.41e+01,
660,-9.24e-03,1.41e+01,
661,-9.24e-03,1.41e+01,
662,-9.24e-03,1.41e+01,
663,-9.24e-03,1.41e+01,
664,-9.24e-03,1.41e+01,
665,-9.24e-03,1.41e+01,
666,-9.24e-03,1.43e+01,
667,-9.24e-03,1.43e+01,
668,-9.24e-03,1.41e+01,
669,-9.24e-03,1.43e+01,
670,-9.24e-03,1.43e+01,
671,-9.24e-03,1.43e+01,
672,-9.24e-03,1.43e+01,
673,-9.24e-03,1.43e+01,
674,-9.24e-03,1.43e+01,
675,-9.24e-03,1.43e+01,
676,-9.24e-03,1.43e+01,
677,-9.24e-03,1.43e+01,
678,-9.24e-03,1.43e+01,
679,-9.24e-03,1.45e+01,
680,-9.24e-03,1.43e+01,
681,-9.24e-03,1.43e+01,
682,-9.24e-03,1.45e+01,
683,-9.24e-03,1.43e+01,
684,-9.24e-03,1.45e+01,
685,-9.24e-03,1.43e+01,
686,-9.24e-03,1.45e+01,
687,-9.24e-03,1.45e+01,
688,-9.24e-03,1.45e+01,
689,-9.24e-03,1.45e+01,
690,-9.24e-03,1.45e+01,
691,-9.24e-03,1.45e+01,
692,-9.24e-03,1.45e+01,
693,-9.24e-03,1.45e+01,
694,-9.24e-03,1.45e+01,
695,-9.24e-03,1.45e+01,
696,-9.24e-03,1.45e+01,
697,-9.24e-03,1.45e+01,
698,-9.24e-03,1.47e+01,
699,-9.24e-03,1.45e+01,
700,-9.24e-03,1.47e+01,
701,-9.24e-03,1.45e+01,
702,-9.24e-03,1.47e+01,
703,-9.24e-03,1.47e+01,
704,-9.24e-03,1.47e+01,
705,-9.24e-03,1.47e+01,
706,-9.24e-03,1.47e+01,
707,-9.24e-03,1.47e+01,
708,-9.24e-03,1.47e+01,
709,-9.24e-03,1.47e+01,
710,-9.24e-03,1.47e+01,
711,-9.24e-03,1.47e+01,
712,-9.24e-03,1.47e+01,
713,-9.24e-03,1.47e+01,
714,-9.24e-03,1.49e+01,
715,-9.24e-03,1.47e+01,
716,-9.24e-03,1.47e+01,
717,-9.24e-03,1.47e+01,
718,-9.24e-03,1.49e+01,
719,-9.24e-03,1.47e+01,
720,-9.24e-03,1.47e+01,
721,-9.24e-03,1.47e+01,
722,-9.24e-03,1.49e+01,
723,-9.24e-03,1.49e+01,
724,-9.24e-03,1.47e+01,
725,-9.24e-03,1.47e+01,
726,-9.24e-03,1.47e+01,
727,-9.24e-03,1.49e+01,
728,-9.24e-03,1.49e+01,
729,-9.24e-03,1.49e+01,
730,-9.24e-03,1.49e+01,
731,-9.24e-03,1.49e+01,
732,-9.24e-03,1.47e+01,
733,-9.24e-03,1.49e+01,
734,-9.24e-03,1.49e+01,
735,-9.24e-03,1.49e+01,
736,-9.24e-03,1.49e+01,
737,-9.24e-03,1.49e+01,
738,-9.24e-03,1.53e+01,
739,-9.24e-03,1.49e+01,
740,-9.24e-03,1.49e+01,
741,-9.24e-03,1.47e+01,
742,-9.24e-03,1.49e+01,
743,-9.24e-03,1.49e+01,
744,-9.24e-03,1.49e+01,
745,-9.24e-03,1.49e+01,
746,-9.24e-03,1.49e+01,
747,-9.24e-03,1.49e+01,
748,-9.24e-03,1.49e+01,
749,-9.24e-03,1.49e+01,
750,-9.24e-03,1.49e+01,
751,-9.24e-03,1.49e+01,
752,-9.24e-03,1.49e+01,
753,-9.24e-03,1.49e+01,
754,-9.24e-03,1.49e+01,
755,-9.24e-03,1.49e+01,
756,-9.24e-03,1.49e+01,
757,-9.24e-03,1.49e+01,
758,-9.24e-03,1.49e+01,
759,-9.24e-03,1.49e+01,
760,-9.24e-03,1.47e+01,
761,-9.24e-03,1.47e+01,
762,-9.24e-03,1.47e+01,
763,-9.24e-03,1.47e+01,
764,-9.24e-03,1.49e+01,
765,-9.24e-03,1.49e+01,
766,-9.24e-03,1.49e+01,
767,-9.24e-03,1.47e+01,
768,-9.24e-03,1.49e+01,
769,-3.08e-03,1.49e+01,
770,9.24e-03,1.49e+01,
771,9.24e-03,1.49e+01,
772,2.16e-02,1.49e+01,
773,4.62e-02,1.49e+01,
774,5.24e-02,1.49e+01,
775,4.62e-02,1.49e+01,
776,3.39e-02,1.49e+01,
777,2.16e-02,1.49e+01,
778,1.54e-02,1.49e+01,
779,1.54e-02,1.49e+01,
780,1.54e-02,1.49e+01,
781,1.54e-02,1.49e+01,
782,2.16e-02,1.49e+01,
783,4.00e-02,1.53e+01,
784,4.00e-02,1.53e+01,
785,4.00e-02,1.49e+01,
786,4.00e-02,1.53e+01,
787,4.00e-02,1.49e+01,
788,3.39e-02,1.49e+01,
789,3.39e-02,1.49e+01,
790,2.16e-02,1.53e+01,
791,1.54e-02,1.53e+01,
792,9.24e-03,1.49e+01,
793,3.08e-03,1.53e+01,
794,3.08e-03,1.53e+01,
795,-3.08e-03,1.53e+01,
796,-3.08e-03,1.53e+01,
797,-3.08e-03,1.53e+01,
798,2.16e-02,1.49e+01,
799,8.32e-02,1.41e+01,
800,1.63e-01,1.25e+01,
801,2.19e-01,1.07e+01,
802,1.63e-01,8.30e+00,
803,-2.16e-02,5.70e+00,
804,-2.56e-01,3.70e+00,
805,-3.36e-01,3.10e+00,
806,-1.88e-01,4.30e+00,
807,5.85e-02,5.10e+00,
808,2.43e-01,5.50e+00,
809,2.74e-01,4.90e+00,
810,1.39e-01,3.70e+00,
811,-7.70e-02,2.30e+00,
812,-2.25e-01,1.50e+00,
813,-1.88e-01,1.90e+00,
814,-9.24e-03,2.90e+00,
815,1.57e-01,3.30e+00,
816,2.19e-01,2.70e+00,
817,1.39e-01,1.90e+00,
818,-2.16e-02,7.00e-01,
819,-1.63e-01,-1.00e-01,
820,-1.57e-01,1.00e-01,
821,-2.16e-02,7.00e-01,
822,1.20e-01,1.50e+00,
823,1.82e-01,9.00e-01,
824,1.20e-01,1.00e-01,
825,-1.54e-02,-5.00e-01,
826,-1.26e-01,-9.00e-01,
827,-1.32e-01,-7.00e-01,
828,-2.77e-02,-1.00e-01,
829,8.32e-02,3.00e-01,
830,1.45e-01,5.00e-01,
831,1.08e-01,1.00e-01,
832,-3.08e-03,-5.00e-01,
833,-9.55e-02,-9.00e-01,
834,-1.02e-01,-5.00e-01,
835,-2.77e-02,1.00e-01,
