lab3/t4v4/NewFile1.csv

X,CH1,CH2,Start,Increment,
Sequence,Volt,Volt,-1.590000e-06,2.000000e-09
0,-5.00e-02,-1.13e-05,
1,5.00e-02,1.00e-01,
2,-5.00e-02,-1.13e-05,
3,-5.00e-02,-1.13e-05,
4,-5.00e-02,-1.13e-05,
5,5.00e-02,1.00e-01,
6,-5.00e-02,-1.13e-05,
7,-5.00e-02,-1.13e-05,
8,-5.00e-02,-1.13e-05,
9,5.00e-02,-1.13e-05,
10,-5.00e-02,-1.13e-05,
11,-5.00e-02,-1.13e-05,
12,-5.00e-02,-1.13e-05,
13,5.00e-02,1.00e-01,
14,-5.00e-02,-1.13e-05,
15,-5.00e-02,-1.13e-05,
16,-5.00e-02,-1.13e-05,
17,5.00e-02,1.00e-01,
18,-5.00e-02,-1.13e-05,
19,-5.00e-02,-1.13e-05,
20,-5.00e-02,-1.13e-05,
21,5.00e-02,1.00e-01,
22,-5.00e-02,-1.13e-05,
23,-5.00e-02,-1.13e-05,
24,-5.00e-02,-1.13e-05,
25,5.00e-02,1.00e-01,
26,-5.00e-02,-1.13e-05,
27,-5.00e-02,-1.13e-05,
28,-5.00e-02,-1.13e-05,
29,5.00e-02,1.00e-01,
30,-1.50e-01,-1.00e-01,
31,5.00e-02,-1.13e-05,
32,-5.00e-02,-1.13e-05,
33,-5.00e-02,-1.13e-05,
34,5.00e-02,1.00e-01,
35,-5.00e-02,-1.00e-01,
36,-5.00e-02,-1.13e-05,
37,5.00e-02,1.00e-01,
38,-5.00e-02,-1.13e-05,
39,-5.00e-02,-1.13e-05,
40,-5.00e-02,-1.13e-05,
41,5.00e-02,1.00e-01,
42,-5.00e-02,-1.13e-05,
43,-5.00e-02,-1.13e-05,
44,-5.00e-02,-1.13e-05,
45,5.00e-02,1.00e-01,
46,-5.00e-02,-1.13e-05,
47,-5.00e-02,-1.13e-05,
48,-5.00e-02,-1.13e-05,
49,-5.00e-02,-1.13e-05,
50,-5.00e-02,-1.13e-05,
51,-5.00e-02,-1.13e-05,
52,-5.00e-02,-1.13e-05,
53,5.00e-02,1.00e-01,
54,-5.00e-02,-1.13e-05,
55,-5.00e-02,-1.13e-05,
56,-5.00e-02,-1.13e-05,
57,5.00e-02,1.00e-01,
58,-5.00e-02,-1.13e-05,
59,-5.00e-02,-1.13e-05,
60,-5.00e-02,-1.13e-05,
61,5.00e-02,1.00e-01,
62,-5.00e-02,-1.13e-05,
63,-5.00e-02,-1.13e-05,
64,-5.00e-02,-1.13e-05,
65,5.00e-02,1.00e-01,
66,-5.00e-02,-1.13e-05,
67,-5.00e-02,-1.13e-05,
68,-5.00e-02,-1.13e-05,
69,-5.00e-02,-1.13e-05,
70,-5.00e-02,-1.13e-05,
71,-5.00e-02,-1.13e-05,
72,-5.00e-02,-1.13e-05,
73,5.00e-02,1.00e-01,
74,-5.00e-02,-1.13e-05,
75,-5.00e-02,-1.13e-05,
76,-5.00e-02,-1.13e-05,
77,5.00e-02,-1.13e-05,
78,-5.00e-02,-1.13e-05,
79,-5.00e-02,-1.13e-05,
80,-5.00e-02,-1.13e-05,
81,5.00e-02,-1.13e-05,
82,-5.00e-02,-1.13e-05,
83,-5.00e-02,-1.13e-05,
84,-5.00e-02,-1.13e-05,
85,5.00e-02,1.00e-01,
86,-5.00e-02,-1.13e-05,
87,-5.00e-02,-1.13e-05,
88,-5.00e-02,-1.13e-05,
89,-5.00e-02,-1.13e-05,
90,-5.00e-02,-1.13e-05,
91,-5.00e-02,-1.13e-05,
92,-5.00e-02,-1.13e-05,
93,5.00e-02,-1.13e-05,
94,-5.00e-02,-1.13e-05,
95,-5.00e-02,-1.13e-05,
96,-5.00e-02,-1.13e-05,
97,5.00e-02,-1.13e-05,
98,-5.00e-02,-1.13e-05,
99,-5.00e-02,-1.13e-05,
100,-5.00e-02,-1.13e-05,
101,5.00e-02,-1.13e-05,
102,-5.00e-02,-1.13e-05,
103,-5.00e-02,-1.13e-05,
104,-5.00e-02,-1.13e-05,
105,5.00e-02,-1.13e-05,
106,-5.00e-02,-1.13e-05,
107,-5.00e-02,-1.13e-05,
108,-5.00e-02,-1.13e-05,
109,-5.00e-02,-1.13e-05,
110,-5.00e-02,-1.13e-05,
111,-5.00e-02,-1.13e-05,
112,-5.00e-02,-1.13e-05,
113,5.00e-02,-1.13e-05,
114,-5.00e-02,-1.13e-05,
115,-5.00e-02,-1.13e-05,
116,-5.00e-02,-1.13e-05,
117,5.00e-02,-1.13e-05,
118,-5.00e-02,-1.13e-05,
119,-5.00e-02,-1.13e-05,
120,-5.00e-02,-1.13e-05,
121,-5.00e-02,-1.13e-05,
122,-5.00e-02,-1.13e-05,
123,-5.00e-02,-1.13e-05,
124,-5.00e-02,-1.13e-05,
125,5.00e-02,-1.13e-05,
126,-5.00e-02,-1.13e-05,
127,-5.00e-02,-1.13e-05,
128,-5.00e-02,-1.13e-05,
129,-5.00e-02,-1.13e-05,
130,-5.00e-02,-1.13e-05,
131,-5.00e-02,-1.13e-05,
132,-5.00e-02,-1.13e-05,
133,5.00e-02,-1.13e-05,
134,-5.00e-02,-1.00e-01,
135,-5.00e-02,-1.13e-05,
136,-5.00e-02,-1.13e-05,
137,5.00e-02,-1.13e-05,
138,-5.00e-02,-1.13e-05,
139,-5.00e-02,-1.00e-01,
140,-5.00e-02,-1.00e-01,
141,5.00e-02,-1.13e-05,
142,-5.00e-02,-1.00e-01,
143,-5.00e-02,-1.13e-05,
144,-5.00e-02,-1.00e-01,
145,-5.00e-02,-1.13e-05,
146,-5.00e-02,-1.13e-05,
147,-5.00e-02,-1.13e-05,
148,-5.00e-02,-1.13e-05,
149,-5.00e-02,-1.13e-05,
150,-5.00e-02,-1.13e-05,
151,-5.00e-02,-1.13e-05,
152,-5.00e-02,-1.00e-01,
153,5.00e-02,-1.13e-05,
154,-5.00e-02,-1.00e-01,
155,-5.00e-02,-1.00e-01,
156,-5.00e-02,-1.00e-01,
157,5.00e-02,-1.13e-05,
158,-5.00e-02,-1.00e-01,
159,-5.00e-02,-1.00e-01,
160,-5.00e-02,-1.13e-05,
161,-5.00e-02,-1.13e-05,
162,-5.00e-02,-1.00e-01,
163,-5.00e-02,-1.13e-05,
164,-5.00e-02,-1.00e-01,
165,5.00e-02,-1.13e-05,
166,-5.00e-02,-1.00e-01,
167,-5.00e-02,-1.13e-05,
168,-5.00e-02,-1.00e-01,
169,-5.00e-02,-1.13e-05,
170,-5.00e-02,-1.13e-05,
171,-5.00e-02,-1.00e-01,
172,-5.00e-02,-1.00e-01,
173,5.00e-02,-1.13e-05,
174,-5.00e-02,-1.00e-01,
175,-5.00e-02,-1.00e-01,
176,-5.00e-02,-1.00e-01,
177,-5.00e-02,-1.13e-05,
178,-5.00e-02,-1.13e-05,
179,-5.00e-02,-1.00e-01,
180,-5.00e-02,-1.00e-01,
181,5.00e-02,-1.13e-05,
182,-5.00e-02,-1.00e-01,
183,-5.00e-02,-1.00e-01,
184,-5.00e-02,-1.00e-01,
185,5.00e-02,-1.13e-05,
186,-5.00e-02,-1.00e-01,
187,-5.00e-02,-1.00e-01,
188,-5.00e-02,-1.13e-05,
189,-5.00e-02,-1.13e-05,
190,-5.00e-02,-1.13e-05,
191,-5.00e-02,-1.13e-05,
192,-5.00e-02,-1.00e-01,
193,5.00e-02,-1.13e-05,
194,-5.00e-02,-1.00e-01,
195,-5.00e-02,-1.00e-01,
196,-5.00e-02,-1.00e-01,
197,-5.00e-02,-1.13e-05,
198,-5.00e-02,-1.00e-01,
199,-5.00e-02,-1.00e-01,
200,-5.00e-02,-1.13e-05,
201,-5.00e-02,-1.13e-05,
202,-5.00e-02,-1.00e-01,
203,-5.00e-02,-1.00e-01,
204,-5.00e-02,-1.00e-01,
205,5.00e-02,-1.13e-05,
206,-5.00e-02,-1.00e-01,
207,-5.00e-02,-1.00e-01,
208,-5.00e-02,-1.00e-01,
209,-5.00e-02,-1.13e-05,
210,-5.00e-02,-1.13e-05,
211,-5.00e-02,-1.13e-05,
212,-5.00e-02,-1.00e-01,
213,5.00e-02,-1.13e-05,
214,-5.00e-02,-1.00e-01,
215,-5.00e-02,-1.00e-01,
216,-5.00e-02,-1.00e-01,
217,-5.00e-02,-1.13e-05,
218,-5.00e-02,-1.13e-05,
219,-5.00e-02,-1.00e-01,
220,-5.00e-02,-1.00e-01,
221,5.00e-02,-1.13e-05,
222,-5.00e-02,-1.00e-01,
223,-5.00e-02,-1.13e-05,
224,-5.00e-02,-1.00e-01,
225,-5.00e-02,-1.13e-05,
226,-5.00e-02,-1.13e-05,
227,-5.00e-02,-1.00e-01,
228,-5.00e-02,-1.00e-01,
229,5.00e-02,-1.13e-05,
230,-1.50e-01,-1.00e-01,
231,5.00e-02,-1.13e-05,
232,-5.00e-02,-1.00e-01,
233,-5.00e-02,-1.13e-05,
234,5.00e-02,-1.13e-05,
235,-1.50e-01,-1.00e-01,
236,-5.00e-02,-1.13e-05,
237,5.00e-02,-1.13e-05,
238,-5.00e-02,-1.00e-01,
239,-5.00e-02,-1.13e-05,
240,-5.00e-02,-1.00e-01,
241,5.00e-02,-1.13e-05,
242,-5.00e-02,-1.13e-05,
243,-5.00e-02,-1.00e-01,
244,-5.00e-02,-1.13e-05,
245,-5.00e-02,-1.13e-05,
246,-5.00e-02,-1.13e-05,
247,-5.00e-02,-1.13e-05,
248,-5.00e-02,-1.13e-05,
249,-5.00e-02,-1.13e-05,
250,-5.00e-02,-1.13e-05,
251,-5.00e-02,-1.13e-05,
252,-5.00e-02,-1.00e-01,
253,5.00e-02,-1.13e-05,
254,-5.00e-02,-1.00e-01,
255,-5.00e-02,-1.13e-05,
256,-5.00e-02,-1.13e-05,
257,-5.00e-02,-1.13e-05,
258,-5.00e-02,-1.13e-05,
259,-5.00e-02,-1.13e-05,
260,-5.00e-02,-1.13e-05,
261,5.00e-02,-1.13e-05,
262,-5.00e-02,-1.00e-01,
263,-5.00e-02,-1.13e-05,
264,-5.00e-02,-1.13e-05,
265,-5.00e-02,-1.13e-05,
266,-5.00e-02,-1.13e-05,
267,-5.00e-02,-1.13e-05,
268,-5.00e-02,-1.13e-05,
269,-5.00e-02,-1.13e-05,
270,-5.00e-02,-1.13e-05,
271,-5.00e-02,-1.13e-05,
272,-5.00e-02,-1.13e-05,
273,5.00e-02,-1.13e-05,
274,-5.00e-02,-1.13e-05,
275,-5.00e-02,-1.13e-05,
276,-5.00e-02,-1.13e-05,
277,5.00e-02,-1.13e-05,
278,-5.00e-02,-1.13e-05,
279,-5.00e-02,-1.13e-05,
280,-5.00e-02,-1.13e-05,
281,5.00e-02,-1.13e-05,
282,-5.00e-02,-1.13e-05,
283,-5.00e-02,-1.13e-05,
284,-5.00e-02,-1.13e-05,
285,5.00e-02,-1.13e-05,
286,-5.00e-02,-1.13e-05,
287,-5.00e-02,-1.13e-05,
288,-5.00e-02,-1.13e-05,
289,-5.00e-02,-1.13e-05,
290,-5.00e-02,-1.13e-05,
291,-5.00e-02,-1.13e-05,
292,-5.00e-02,-1.13e-05,
293,5.00e-02,-1.13e-05,
294,-5.00e-02,-1.13e-05,
295,-5.00e-02,-1.13e-05,
296,-5.00e-02,-1.13e-05,
297,5.00e-02,-1.13e-05,
298,-5.00e-02,-1.13e-05,
299,-5.00e-02,-1.13e-05,
300,-5.00e-02,-1.13e-05,
301,5.00e-02,-1.13e-05,
302,-5.00e-02,-1.13e-05,
303,-5.00e-02,-1.13e-05,
304,-5.00e-02,-1.13e-05,
305,5.00e-02,-1.13e-05,
306,-5.00e-02,-1.13e-05,
307,-5.00e-02,-1.13e-05,
308,-5.00e-02,-1.13e-05,
309,-5.00e-02,-1.13e-05,
310,-5.00e-02,-1.13e-05,
311,-5.00e-02,-1.13e-05,
312,-5.00e-02,-1.13e-05,
313,5.00e-02,1.00e-01,
314,-5.00e-02,-1.13e-05,
315,-5.00e-02,-1.13e-05,
316,-5.00e-02,-1.13e-05,
317,5.00e-02,-1.13e-05,
318,-5.00e-02,-1.13e-05,
319,-5.00e-02,-1.13e-05,
320,-5.00e-02,-1.13e-05,
321,5.00e-02,1.00e-01,
322,-5.00e-02,-1.13e-05,
323,-5.00e-02,-1.13e-05,
324,-5.00e-02,-1.13e-05,
325,5.00e-02,-1.13e-05,
326,-5.00e-02,-1.13e-05,
327,-5.00e-02,-1.13e-05,
328,-5.00e-02,-1.13e-05,
329,-5.00e-02,-1.13e-05,
330,-5.00e-02,-1.13e-05,
331,-5.00e-02,-1.13e-05,
332,-5.00e-02,-1.13e-05,
333,5.00e-02,1.00e-01,
334,-5.00e-02,-1.13e-05,
335,-5.00e-02,-1.13e-05,
336,-5.00e-02,-1.13e-05,
337,5.00e-02,-1.13e-05,
338,-5.00e-02,-1.13e-05,
339,-5.00e-02,-1.13e-05,
340,-5.00e-02,-1.13e-05,
341,5.00e-02,-1.13e-05,
342,-5.00e-02,-1.13e-05,
343,-5.00e-02,-1.13e-05,
344,-5.00e-02,-1.13e-05,
345,5.00e-02,1.00e-01,
346,-5.00e-02,-1.13e-05,
347,-5.00e-02,-1.13e-05,
348,-5.00e-02,-1.13e-05,
349,-5.00e-02,-1.13e-05,
350,-5.00e-02,-1.13e-05,
351,-5.00e-02,-1.13e-05,
352,-5.00e-02,-1.13e-05,
353,5.00e-02,1.00e-01,
354,-5.00e-02,-1.13e-05,
355,-5.00e-02,-1.13e-05,
356,-5.00e-02,-1.13e-05,
357,5.00e-02,1.00e-01,
358,-5.00e-02,-1.13e-05,
359,-5.00e-02,-1.13e-05,
360,-5.00e-02,-1.13e-05,
361,5.00e-02,1.00e-01,
362,-5.00e-02,-1.13e-05,
363,-5.00e-02,-1.13e-05,
364,-5.00e-02,-1.13e-05,
365,5.00e-02,1.00e-01,
366,-5.00e-02,-1.13e-05,
367,-5.00e-02,-1.13e-05,
368,-5.00e-02,-1.13e-05,
369,-5.00e-02,-1.13e-05,
370,-5.00e-02,-1.13e-05,
371,-5.00e-02,-1.13e-05,
372,-5.00e-02,-1.13e-05,
373,5.00e-02,1.00e-01,
374,-5.00e-02,-1.13e-05,
375,-5.00e-02,-1.13e-05,
376,-5.00e-02,-1.13e-05,
377,5.00e-02,1.00e-01,
378,-5.00e-02,-1.13e-05,
379,-5.00e-02,-1.13e-05,
380,-5.00e-02,-1.13e-05,
381,5.00e-02,-1.13e-05,
382,-5.00e-02,-1.13e-05,
383,-5.00e-02,-1.13e-05,
384,-5.00e-02,-1.13e-05,
385,5.00e-02,1.00e-01,
386,-5.00e-02,-1.13e-05,
387,-5.00e-02,-1.13e-05,
388,-5.00e-02,-1.13e-05,
389,-5.00e-02,-1.13e-05,
390,-5.00e-02,-1.13e-05,
391,-5.00e-02,-1.13e-05,
392,-5.00e-02,-1.13e-05,
393,5.00e-02,1.00e-01,
394,-5.00e-02,-1.13e-05,
395,-5.00e-02,-1.13e-05,
396,-5.00e-02,-1.13e-05,
397,5.00e-02,1.00e-01,
398,-5.00e-02,-1.13e-05,
399,-5.00e-02,-1.13e-05,
400,-5.00e-02,-1.13e-05,
401,5.00e-02,1.00e-01,
402,-5.00e-02,-1.13e-05,
403,-5.00e-02,-1.13e-05,
404,-5.00e-02,-1.13e-05,
405,5.00e-02,-1.13e-05,
406,-5.00e-02,-1.13e-05,
407,-5.00e-02,-1.13e-05,
408,-5.00e-02,-1.13e-05,
409,-5.00e-02,-1.13e-05,
410,-5.00e-02,-1.13e-05,
411,-5.00e-02,-1.13e-05,
412,-5.00e-02,-1.13e-05,
413,5.00e-02,1.00e-01,
414,-5.00e-02,-1.13e-05,
415,-5.00e-02,-1.13e-05,
416,-5.00e-02,-1.13e-05,
417,5.00e-02,-1.13e-05,
418,-5.00e-02,-1.13e-05,
419,-5.00e-02,-1.13e-05,
420,-5.00e-02,-1.13e-05,
421,5.00e-02,1.00e-01,
422,-5.00e-02,-1.00e-01,
423,-5.00e-02,-1.13e-05,
424,-5.00e-02,-1.13e-05,
425,5.00e-02,-1.13e-05,
426,-5.00e-02,-1.13e-05,
427,-5.00e-02,-1.13e-05,
428,-5.00e-02,-1.13e-05,
429,5.00e-02,1.00e-01,
430,-1.50e-01,-1.00e-01,
431,5.00e-02,-1.13e-05,
432,-5.00e-02,-1.13e-05,
433,-5.00e-02,-1.13e-05,
434,5.00e-02,-1.13e-05,
435,-5.00e-02,-1.00e-01,
436,-5.00e-02,-1.13e-05,
437,5.00e-02,-1.13e-05,
438,-5.00e-02,-1.13e-05,
439,-5.00e-02,-1.13e-05,
440,-5.00e-02,-1.13e-05,
441,5.00e-02,-1.13e-05,
442,-5.00e-02,-1.13e-05,
443,-5.00e-02,-1.13e-05,
444,-5.00e-02,-1.13e-05,
445,5.00e-02,-1.13e-05,
446,-5.00e-02,-1.13e-05,
447,-5.00e-02,-1.13e-05,
448,-5.00e-02,-1.13e-05,
449,-5.00e-02,-1.13e-05,
450,-5.00e-02,-1.13e-05,
451,-5.00e-02,-1.13e-05,
452,-1.50e-01,-1.00e-01,
453,5.00e-02,-1.13e-05,
454,-5.00e-02,-1.13e-05,
455,-5.00e-02,-1.13e-05,
456,-5.00e-02,-1.13e-05,
457,5.00e-02,-1.13e-05,
458,-5.00e-02,-1.13e-05,
459,-5.00e-02,-1.13e-05,
460,-5.00e-02,-1.13e-05,
461,5.00e-02,-1.13e-05,
462,-5.00e-02,-1.13e-05,
463,-5.00e-02,-1.13e-05,
464,-5.00e-02,-1.13e-05,
465,5.00e-02,-1.13e-05,
466,-5.00e-02,-1.13e-05,
467,-5.00e-02,-1.13e-05,
468,-5.00e-02,-1.13e-05,
469,-5.00e-02,-1.13e-05,
470,-5.00e-02,-1.13e-05,
471,-5.00e-02,-1.13e-05,
472,-5.00e-02,-1.13e-05,
473,5.00e-02,-1.13e-05,
474,-5.00e-02,-1.13e-05,
475,-5.00e-02,-1.13e-05,
476,-5.00e-02,-1.13e-05,
477,5.00e-02,-1.13e-05,
478,-5.00e-02,-1.13e-05,
479,-5.00e-02,-1.13e-05,
480,-5.00e-02,-1.13e-05,
481,5.00e-02,-1.13e-05,
482,-5.00e-02,-1.13e-05,
483,-5.00e-02,-1.13e-05,
484,-5.00e-02,-1.00e-01,
485,5.00e-02,-1.13e-05,
486,-5.00e-02,-1.13e-05,
487,-5.00e-02,-1.13e-05,
488,-5.00e-02,-1.13e-05,
489,-5.00e-02,-1.13e-05,
490,-5.00e-02,-1.13e-05,
491,-5.00e-02,-1.00e-01,
492,-5.00e-02,-1.00e-01,
493,5.00e-02,-1.13e-05,
494,-5.00e-02,-1.00e-01,
495,-5.00e-02,-1.13e-05,
496,-5.00e-02,-1.00e-01,
497,5.00e-02,-1.13e-05,
498,-5.00e-02,-1.13e-05,
499,-5.00e-02,-1.00e-01,
500,-5.00e-02,-1.13e-05,
501,5.00e-02,-1.13e-05,
502,-5.00e-02,-1.00e-01,
503,-5.00e-02,-1.13e-05,
504,-5.00e-02,-1.00e-01,
505,-5.00e-02,-1.13e-05,
506,-5.00e-02,-1.13e-05,
507,-5.00e-02,-1.00e-01,
508,-5.00e-02,-1.13e-05,
509,-5.00e-02,-1.13e-05,
510,-5.00e-02,-1.13e-05,
511,-5.00e-02,-1.00e-01,
512,-5.00e-02,-1.00e-01,
513,5.00e-02,-1.13e-05,
514,-5.00e-02,-1.00e-01,
515,-5.00e-02,-1.00e-01,
516,-5.00e-02,-1.00e-01,
517,-5.00e-02,-1.13e-05,
518,-5.00e-02,-1.00e-01,
519,-5.00e-02,-1.00e-01,
520,-5.00e-02,-1.13e-05,
521,5.00e-02,-1.13e-05,
522,-5.00e-02,-1.00e-01,
523,-5.00e-02,-1.13e-05,
524,-5.00e-02,-1.00e-01,
525,5.00e-02,-1.13e-05,
526,-5.00e-02,-1.00e-01,
527,-5.00e-02,-1.13e-05,
528,-5.00e-02,-1.00e-01,
529,-5.00e-02,-1.13e-05,
530,-5.00e-02,-1.13e-05,
531,-5.00e-02,-1.00e-01,
532,-5.00e-02,-1.00e-01,
533,-5.00e-02,-1.13e-05,
534,-5.00e-02,-1.00e-01,
535,-5.00e-02,-1.00e-01,
536,-5.00e-02,-1.00e-01,
537,-5.00e-02,-1.13e-05,
538,-5.00e-02,-1.13e-05,
539,-5.00e-02,-1.00e-01,
540,-5.00e-02,-1.13e-05,
541,5.00e-02,-1.13e-05,
542,-5.00e-02,-1.00e-01,
543,-5.00e-02,-1.13e-05,
544,-5.00e-02,-1.00e-01,
545,-5.00e-02,-1.13e-05,
546,-5.00e-02,-1.13e-05,
547,-5.00e-02,-1.00e-01,
548,-5.00e-02,-1.13e-05,
549,-5.00e-02,-1.13e-05,
550,-5.00e-02,-1.13e-05,
551,-5.00e-02,-1.00e-01,
552,-5.00e-02,-1.00e-01,
553,5.00e-02,-1.13e-05,
554,-5.00e-02,-1.00e-01,
555,-5.00e-02,-1.13e-05,
556,-5.00e-02,-1.00e-01,
557,5.00e-02,-1.13e-05,
558,-5.00e-02,-1.00e-01,
559,-5.00e-02,-1.00e-01,
560,-5.00e-02,-1.13e-05,
561,5.00e-02,-1.13e-05,
562,-5.00e-02,-1.00e-01,
563,-5.00e-02,-1.13e-05,
564,-5.00e-02,-1.00e-01,
565,5.00e-02,-1.13e-05,
566,-5.00e-02,-1.13e-05,
567,-5.00e-02,-1.00e-01,
568,-5.00e-02,-1.13e-05,
569,-5.00e-02,-1.13e-05,
570,-5.00e-02,-1.13e-05,
571,-5.00e-02,-1.00e-01,
572,-5.00e-02,-1.00e-01,
573,5.00e-02,-1.13e-05,
574,-5.00e-02,-1.00e-01,
575,-5.00e-02,-1.13e-05,
576,-5.00e-02,-1.00e-01,
577,-5.00e-02,-1.13e-05,
578,-5.00e-02,-1.13e-05,
579,-5.00e-02,-1.00e-01,
580,-5.00e-02,-1.13e-05,
581,-5.00e-02,-1.13e-05,
582,-5.00e-02,-1.13e-05,
583,-5.00e-02,-1.13e-05,
584,-5.00e-02,-1.13e-05,
585,5.00e-02,-1.13e-05,
586,-5.00e-02,-1.13e-05,
587,-5.00e-02,-1.13e-05,
588,-5.00e-02,-1.13e-05,
589,-5.00e-02,-1.13e-05,
590,-5.00e-02,-1.13e-05,
591,-5.00e-02,-1.13e-05,
592,-5.00e-02,-1.00e-01,
593,5.00e-02,-1.13e-05,
594,-5.00e-02,-1.13e-05,
595,-5.00e-02,-1.13e-05,
596,-5.00e-02,-1.00e-01,
597,5.00e-02,-1.13e-05,
598,-5.00e-02,-1.13e-05,
599,-5.00e-02,-1.13e-05,
600,-5.00e-02,-1.13e-05,
601,5.00e-02,-1.13e-05,
602,-5.00e-02,-1.13e-05,
603,-5.00e-02,-1.13e-05,
604,-5.00e-02,-1.13e-05,
605,5.00e-02,-1.13e-05,
606,-5.00e-02,-1.13e-05,
607,-5.00e-02,-1.13e-05,
608,-5.00e-02,-1.13e-05,
609,-5.00e-02,-1.13e-05,
610,-5.00e-02,-1.13e-05,
611,-5.00e-02,-1.13e-05,
612,-5.00e-02,-1.00e-01,
613,5.00e-02,-1.13e-05,
614,-5.00e-02,-1.13e-05,
615,-5.00e-02,-1.13e-05,
616,-5.00e-02,-1.13e-05,
617,5.00e-02,-1.13e-05,
618,-5.00e-02,-1.13e-05,
619,-5.00e-02,-1.13e-05,
620,-5.00e-02,-1.13e-05,
621,5.00e-02,-1.13e-05,
622,-5.00e-02,-1.00e-01,
623,-5.00e-02,-1.13e-05,
624,-5.00e-02,-1.13e-05,
625,-5.00e-02,-1.13e-05,
626,-5.00e-02,-1.13e-05,
627,-5.00e-02,-1.13e-05,
628,-5.00e-02,-1.13e-05,
629,5.00e-02,1.00e-01,
630,-1.50e-01,-1.00e-01,
631,5.00e-02,-1.13e-05,
632,-5.00e-02,-1.13e-05,
633,-5.00e-02,-1.13e-05,
634,5.00e-02,-1.13e-05,
635,-5.00e-02,-1.00e-01,
636,-5.00e-02,-1.13e-05,
637,5.00e-02,-1.13e-05,
638,-5.00e-02,-1.13e-05,
639,-5.00e-02,-1.13e-05,
640,-5.00e-02,-1.13e-05,
641,5.00e-02,1.00e-01,
642,-5.00e-02,-1.13e-05,
643,-5.00e-02,-1.13e-05,
644,-5.00e-02,-1.13e-05,
645,5.00e-02,-1.13e-05,
646,-5.00e-02,-1.13e-05,
647,-5.00e-02,-1.13e-05,
648,-5.00e-02,-1.13e-05,
649,-5.00e-02,-1.13e-05,
650,-5.00e-02,-1.13e-05,
651,-5.00e-02,-1.13e-05,
652,-5.00e-02,-1.13e-05,
653,5.00e-02,1.00e-01,
654,-5.00e-02,-1.13e-05,
655,-5.00e-02,-1.13e-05,
656,-5.00e-02,-1.13e-05,
657,5.00e-02,-1.13e-05,
658,-5.00e-02,-1.13e-05,
659,-5.00e-02,-1.13e-05,
660,-5.00e-02,-1.13e-05,
661,5.00e-02,1.00e-01,
662,-5.00e-02,-1.13e-05,
663,-5.00e-02,-1.13e-05,
664,-5.00e-02,-1.13e-05,
665,5.00e-02,-1.13e-05,
666,-5.00e-02,-1.13e-05,
667,-5.00e-02,-1.13e-05,
668,-5.00e-02,-1.13e-05,
669,-5.00e-02,-1.13e-05,
670,-5.00e-02,-1.13e-05,
671,-5.00e-02,-1.13e-05,
672,-5.00e-02,-1.13e-05,
673,5.00e-02,1.00e-01,
674,-5.00e-02,-1.13e-05,
675,-5.00e-02,-1.13e-05,
676,-5.00e-02,-1.13e-05,
677,5.00e-02,-1.13e-05,
678,-5.00e-02,-1.13e-05,
679,-5.00e-02,-1.13e-05,
680,-5.00e-02,-1.13e-05,
681,5.00e-02,1.00e-01,
682,-5.00e-02,-1.13e-05,
683,-5.00e-02,-1.13e-05,
684,-5.00e-02,-1.13e-05,
685,5.00e-02,1.00e-01,
686,-5.00e-02,-1.13e-05,
687,-5.00e-02,-1.13e-05,
688,-5.00e-02,-1.13e-05,
689,-5.00e-02,-1.13e-05,
690,-5.00e-02,-1.13e-05,
691,-5.00e-02,-1.13e-05,
692,-5.00e-02,-1.13e-05,
693,5.00e-02,1.00e-01,
694,-5.00e-02,-1.13e-05,
695,-5.00e-02,-1.13e-05,
696,-5.00e-02,-1.13e-05,
697,5.00e-02,1.00e-01,
698,-5.00e-02,-1.13e-05,
699,-5.00e-02,-1.13e-05,
700,-5.00e-02,-1.13e-05,
701,5.00e-02,1.00e-01,
702,-5.00e-02,-1.13e-05,
703,-5.00e-02,-1.13e-05,
704,-5.00e-02,-1.13e-05,
705,5.00e-02,1.00e-01,
706,-5.00e-02,-1.13e-05,
707,-5.00e-02,-1.13e-05,
708,-5.00e-02,-1.13e-05,
709,-5.00e-02,-1.13e-05,
710,-5.00e-02,-1.13e-05,
711,-5.00e-02,-1.13e-05,
712,-5.00e-02,-1.13e-05,
713,5.00e-02,1.00e-01,
714,-5.00e-02,-1.13e-05,
715,-5.00e-02,-1.13e-05,
716,-5.00e-02,-1.13e-05,
717,5.00e-02,1.00e-01,
718,-5.00e-02,-1.13e-05,
719,-5.00e-02,-1.13e-05,
720,-5.00e-02,-1.13e-05,
721,5.00e-02,1.00e-01,
722,-5.00e-02,-1.13e-05,
723,-5.00e-02,-1.13e-05,
724,-5.00e-02,-1.13e-05,
725,5.00e-02,1.00e-01,
726,-5.00e-02,-1.13e-05,
727,-5.00e-02,-1.13e-05,
728,-5.00e-02,-1.13e-05,
729,-5.00e-02,-1.13e-05,
730,-5.00e-02,-1.13e-05,
731,-5.00e-02,-1.13e-05,
732,-5.00e-02,-1.13e-05,
733,5.00e-02,1.00e-01,
734,-5.00e-02,-1.13e-05,
735,-5.00e-02,-1.13e-05,
736,-5.00e-02,-1.13e-05,
737,5.00e-02,1.00e-01,
738,-5.00e-02,-1.13e-05,
739,-5.00e-02,-1.13e-05,
740,-5.00e-02,-1.13e-05,
741,5.00e-02,-1.13e-05,
742,-5.00e-02,-1.13e-05,
743,-5.00e-02,-1.13e-05,
744,-5.00e-02,-1.13e-05,
745,5.00e-02,-1.13e-05,
746,-5.00e-02,-1.13e-05,
747,-5.00e-02,-1.13e-05,
748,-5.00e-02,-1.13e-05,
749,-5.00e-02,-1.13e-05,
750,-5.00e-02,-1.13e-05,
751,-5.00e-02,-1.13e-05,
752,-5.00e-02,-1.13e-05,
753,5.00e-02,1.00e-01,
754,-5.00e-02,-1.13e-05,
755,-5.00e-02,-1.13e-05,
756,-5.00e-02,-1.13e-05,
757,5.00e-02,-1.13e-05,
758,-5.00e-02,-1.13e-05,
759,-5.00e-02,-1.13e-05,
760,-5.00e-02,-1.13e-05,
761,5.00e-02,-1.13e-05,
762,-5.00e-02,-1.13e-05,
763,-5.00e-02,-1.13e-05,
764,-5.00e-02,-1.13e-05,
765,-5.00e-02,-1.13e-05,
766,-5.00e-02,-1.13e-05,
767,-5.00e-02,-1.13e-05,
768,-5.00e-02,-1.13e-05,
769,-5.00e-02,-1.13e-05,
770,-5.00e-02,-1.13e-05,
771,-5.00e-02,-1.13e-05,
772,-1.50e-01,-1.13e-05,
773,-5.00e-02,-1.13e-05,
774,-1.50e-01,-1.13e-05,
775,-5.00e-02,-1.13e-05,
776,-1.50e-01,-1.13e-05,
777,-5.00e-02,-1.13e-05,
778,-5.00e-02,-1.13e-05,
779,-5.00e-02,-1.00e-01,
780,-5.00e-02,-1.13e-05,
781,-5.00e-02,-1.13e-05,
782,-1.50e-01,-1.13e-05,
783,-5.00e-02,-1.13e-05,
784,-1.50e-01,-1.13e-05,
785,-5.00e-02,-1.13e-05,
786,-1.50e-01,-1.13e-05,
787,-5.00e-02,-1.13e-05,
788,-1.50e-01,-1.13e-05,
789,-5.00e-02,-1.13e-05,
790,-5.00e-02,-1.13e-05,
791,1.50e-01,-1.13e-05,
792,5.50e-01,1.00e-01,
793,1.25e+00,2.00e-01,
794,1.75e+00,2.00e-01,
795,2.75e+00,4.00e-01,
796,3.75e+00,5.00e-01,
797,4.75e+00,6.00e-01,
798,5.35e+00,6.00e-01,
799,5.95e+00,6.00e-01,
800,6.45e+00,9.00e-01,
801,7.05e+00,1.00e+00,
802,7.55e+00,1.10e+00,
803,8.15e+00,1.30e+00,
804,8.75e+00,1.40e+00,
805,9.35e+00,1.70e+00,
806,1.00e+01,1.90e+00,
807,1.07e+01,2.20e+00,
808,1.14e+01,2.40e+00,
809,1.21e+01,2.60e+00,
